{
  "extends": "tslint:recommended",
//  "rulesDirectory": ["path/to/custom/rules/directory/", "another/path/"],
  "linterOptions": {
    "exclude": ["*.tsx"]
  },
  "rules": {
//    "arrow-parens": false,
    "max-line-length": {
      "options": [140]
    },
    "new-parens": true,
    "no-arg": true,
    "no-bitwise": true,
    "no-conditional-assignment": true,
    "no-consecutive-blank-lines": false,
    "no-console": {
      "severity": "warning",
      "options": ["debug", "info", "log", "time", "timeEnd", "trace"]
    },
    "quotemark": [true, "double"]
  },
  "jsRules": {
    "max-line-length": {
      "options": [140]
    }
  }
}
