-- Merging decision tree log ---
manifest
ADDED from /Users/Konstantin/Dev/pemo/android/app/src/main/AndroidManifest.xml:1:1-25:12
INJECTED from /Users/Konstantin/Dev/pemo/android/app/src/main/AndroidManifest.xml:1:1-25:12
INJECTED from /Users/Konstantin/Dev/pemo/android/app/src/main/AndroidManifest.xml:1:1-25:12
INJECTED from /Users/Konstantin/Dev/pemo/android/app/src/main/AndroidManifest.xml:1:1-25:12
MERGED from /Users/Konstantin/Dev/pemo/android/app/src/main/AndroidManifest.xml:1:1-25:12
MERGED from [:@react-native-community_async-storage] /Users/Konstantin/Dev/pemo/node_modules/@react-native-community/async-storage/android/build/intermediates/library_manifest/debug/AndroidManifest.xml:2:1-9:12
MERGED from [:@react-native-community_masked-view] /Users/Konstantin/Dev/pemo/node_modules/@react-native-community/masked-view/android/build/intermediates/library_manifest/debug/AndroidManifest.xml:2:1-9:12
MERGED from [:react-native-gesture-handler] /Users/Konstantin/Dev/pemo/node_modules/react-native-gesture-handler/android/build/intermediates/library_manifest/debug/AndroidManifest.xml:2:1-11:12
MERGED from [:react-native-safe-area-context] /Users/Konstantin/Dev/pemo/node_modules/react-native-safe-area-context/android/build/intermediates/library_manifest/debug/AndroidManifest.xml:2:1-9:12
MERGED from [:react-native-vector-icons] /Users/Konstantin/Dev/pemo/node_modules/react-native-vector-icons/android/build/intermediates/library_manifest/debug/AndroidManifest.xml:2:1-11:12
MERGED from [:react-native-webview] /Users/Konstantin/Dev/pemo/node_modules/react-native-webview/android/build/intermediates/library_manifest/debug/AndroidManifest.xml:2:1-23:12
MERGED from [com.facebook.react:react-native:0.61.5] /Users/Konstantin/.gradle/caches/transforms-2/files-2.1/0f5bf9119aac26cb7f08a1356a0aa383/AndroidManifest.xml:2:1-13:12
MERGED from [org.webkit:android-jsc:r245459] /Users/Konstantin/.gradle/caches/transforms-2/files-2.1/0d0702e997172852df1ed45fb10542b3/AndroidManifest.xml:2:1-11:12
MERGED from [androidx.appcompat:appcompat:1.0.2] /Users/Konstantin/.gradle/caches/transforms-2/files-2.1/7b6c35dea7248d6756250f42cc41f558/AndroidManifest.xml:17:1-22:12
MERGED from [com.facebook.fresco:fresco:2.0.0] /Users/Konstantin/.gradle/caches/transforms-2/files-2.1/e8cd691fbd00a8e3a9ce3117beb6e5cf/AndroidManifest.xml:2:1-9:12
MERGED from [com.facebook.fresco:imagepipeline-okhttp3:2.0.0] /Users/Konstantin/.gradle/caches/transforms-2/files-2.1/afcf36bf1b0e3f0982deeedb9df150c5/AndroidManifest.xml:2:1-9:12
MERGED from [com.facebook.fresco:drawee:2.0.0] /Users/Konstantin/.gradle/caches/transforms-2/files-2.1/0b64b9a218539492784f6a6c8eacfdcb/AndroidManifest.xml:2:1-9:12
MERGED from [com.facebook.fresco:nativeimagefilters:2.0.0] /Users/Konstantin/.gradle/caches/transforms-2/files-2.1/47987037aee51241a9deefd4dd60ded4/AndroidManifest.xml:2:1-9:12
MERGED from [com.facebook.fresco:imagepipeline:2.0.0] /Users/Konstantin/.gradle/caches/transforms-2/files-2.1/e00665eb7b8ed8d4b08b53d04a8add4b/AndroidManifest.xml:2:1-9:12
MERGED from [com.facebook.fresco:nativeimagetranscoder:2.0.0] /Users/Konstantin/.gradle/caches/transforms-2/files-2.1/2674e2165646a676ace5014b826890f0/AndroidManifest.xml:2:1-9:12
MERGED from [com.facebook.fresco:imagepipeline-base:2.0.0] /Users/Konstantin/.gradle/caches/transforms-2/files-2.1/a843fb7efe2d20fc0425102cd2ad6f77/AndroidManifest.xml:2:1-9:12
MERGED from [com.facebook.soloader:soloader:0.6.0] /Users/Konstantin/.gradle/caches/transforms-2/files-2.1/464abe0f5c561e034a6ceee2e0e20e93/AndroidManifest.xml:2:1-13:12
MERGED from [androidx.fragment:fragment:1.0.0] /Users/Konstantin/.gradle/caches/transforms-2/files-2.1/48b5b4cc0675471d3e2a0b1968773187/AndroidManifest.xml:17:1-22:12
MERGED from [androidx.vectordrawable:vectordrawable-animated:1.0.0] /Users/Konstantin/.gradle/caches/transforms-2/files-2.1/9afa56f59bfc51a6a5441c3cc42d05f9/AndroidManifest.xml:17:1-22:12
MERGED from [androidx.legacy:legacy-support-core-ui:1.0.0] /Users/Konstantin/.gradle/caches/transforms-2/files-2.1/d1de9b9842b4429f4c19f8eed0358177/AndroidManifest.xml:17:1-22:12
MERGED from [androidx.legacy:legacy-support-core-utils:1.0.0] /Users/Konstantin/.gradle/caches/transforms-2/files-2.1/e7d6dae1efa6f3a300420c2c418c890c/AndroidManifest.xml:17:1-22:12
MERGED from [androidx.vectordrawable:vectordrawable:1.0.1] /Users/Konstantin/.gradle/caches/transforms-2/files-2.1/26ca79b1d515208512f66b81bc299d3c/AndroidManifest.xml:17:1-22:12
MERGED from [androidx.loader:loader:1.0.0] /Users/Konstantin/.gradle/caches/transforms-2/files-2.1/7aa6b6ffc30b44fd0e7d8ba3e6016205/AndroidManifest.xml:17:1-22:12
MERGED from [androidx.viewpager:viewpager:1.0.0] /Users/Konstantin/.gradle/caches/transforms-2/files-2.1/197fb1647efc9eaf38a5bddcafd301f6/AndroidManifest.xml:17:1-22:12
MERGED from [androidx.coordinatorlayout:coordinatorlayout:1.0.0] /Users/Konstantin/.gradle/caches/transforms-2/files-2.1/23a7528478b2665bd61146263b028f5e/AndroidManifest.xml:17:1-22:12
MERGED from [androidx.drawerlayout:drawerlayout:1.0.0] /Users/Konstantin/.gradle/caches/transforms-2/files-2.1/ef3c986e838b3c74f712e43bb6f3c833/AndroidManifest.xml:17:1-22:12
MERGED from [androidx.slidingpanelayout:slidingpanelayout:1.0.0] /Users/Konstantin/.gradle/caches/transforms-2/files-2.1/4c24b1222dc70c7c4e2df61ecd317a89/AndroidManifest.xml:17:1-22:12
MERGED from [androidx.customview:customview:1.0.0] /Users/Konstantin/.gradle/caches/transforms-2/files-2.1/fa443af08c8190334116e65fa49138d4/AndroidManifest.xml:17:1-22:12
MERGED from [androidx.swiperefreshlayout:swiperefreshlayout:1.0.0] /Users/Konstantin/.gradle/caches/transforms-2/files-2.1/ade4a3435e7f15e8bca422b958bdb554/AndroidManifest.xml:17:1-22:12
MERGED from [androidx.asynclayoutinflater:asynclayoutinflater:1.0.0] /Users/Konstantin/.gradle/caches/transforms-2/files-2.1/d8ad908d508b0ef95c8babbe811e7299/AndroidManifest.xml:17:1-22:12
MERGED from [androidx.core:core:1.0.1] /Users/Konstantin/.gradle/caches/transforms-2/files-2.1/fb884cef565cc6796a05d7db93788e70/AndroidManifest.xml:17:1-24:12
MERGED from [androidx.versionedparcelable:versionedparcelable:1.0.0] /Users/Konstantin/.gradle/caches/transforms-2/files-2.1/b603d219786f477ce908894708664035/AndroidManifest.xml:17:1-25:12
MERGED from [androidx.cursoradapter:cursoradapter:1.0.0] /Users/Konstantin/.gradle/caches/transforms-2/files-2.1/1918d0d14692112c4a4f1f1064ccfdca/AndroidManifest.xml:17:1-22:12
MERGED from [androidx.lifecycle:lifecycle-runtime:2.0.0] /Users/Konstantin/.gradle/caches/transforms-2/files-2.1/9c3e8bcd72ca44f2307dd217d6158ce7/AndroidManifest.xml:17:1-22:12
MERGED from [androidx.documentfile:documentfile:1.0.0] /Users/Konstantin/.gradle/caches/transforms-2/files-2.1/1cbb145669d63f12ce06ecb675a68cca/AndroidManifest.xml:17:1-22:12
MERGED from [androidx.localbroadcastmanager:localbroadcastmanager:1.0.0] /Users/Konstantin/.gradle/caches/transforms-2/files-2.1/c058c4cc01fe9b1698af32383f35b7cd/AndroidManifest.xml:17:1-22:12
MERGED from [androidx.print:print:1.0.0] /Users/Konstantin/.gradle/caches/transforms-2/files-2.1/1b5c13f6b23ebf240d4fbf4d0aecbbb9/AndroidManifest.xml:17:1-22:12
MERGED from [androidx.lifecycle:lifecycle-viewmodel:2.0.0] /Users/Konstantin/.gradle/caches/transforms-2/files-2.1/d133eb28dc2e098dbea9f597a8aab51a/AndroidManifest.xml:17:1-22:12
MERGED from [androidx.lifecycle:lifecycle-livedata:2.0.0] /Users/Konstantin/.gradle/caches/transforms-2/files-2.1/da5d49d2c9825f82dfaee107a660c53d/AndroidManifest.xml:17:1-22:12
MERGED from [androidx.lifecycle:lifecycle-livedata-core:2.0.0] /Users/Konstantin/.gradle/caches/transforms-2/files-2.1/a862cddd5ebb254a5f87977c6d9d3b51/AndroidManifest.xml:17:1-22:12
MERGED from [androidx.arch.core:core-runtime:2.0.0] /Users/Konstantin/.gradle/caches/transforms-2/files-2.1/45eedfab2b2eda42599fd519558a0019/AndroidManifest.xml:17:1-22:12
MERGED from [androidx.interpolator:interpolator:1.0.0] /Users/Konstantin/.gradle/caches/transforms-2/files-2.1/fae3780e20880ba06d96229626fdae47/AndroidManifest.xml:17:1-22:12
MERGED from [com.facebook.fresco:fbcore:2.0.0] /Users/Konstantin/.gradle/caches/transforms-2/files-2.1/0063fae6ed1d4e79ee97b26ce63932d1/AndroidManifest.xml:2:1-9:12
INJECTED from /Users/Konstantin/Dev/pemo/android/app/src/debug/AndroidManifest.xml:2:1-8:12
INJECTED from /Users/Konstantin/Dev/pemo/android/app/src/debug/AndroidManifest.xml:2:1-8:12
INJECTED from /Users/Konstantin/Dev/pemo/android/app/src/debug/AndroidManifest.xml:2:1-8:12
	package
		ADDED from /Users/Konstantin/Dev/pemo/android/app/src/main/AndroidManifest.xml:2:3-21
		INJECTED from /Users/Konstantin/Dev/pemo/android/app/src/main/AndroidManifest.xml
		ADDED from /Users/Konstantin/Dev/pemo/android/app/src/main/AndroidManifest.xml:2:3-21
		INJECTED from /Users/Konstantin/Dev/pemo/android/app/src/debug/AndroidManifest.xml
	android:versionName
		INJECTED from /Users/Konstantin/Dev/pemo/android/app/src/main/AndroidManifest.xml
		ADDED from /Users/Konstantin/Dev/pemo/android/app/src/main/AndroidManifest.xml:1:1-25:12
		INJECTED from /Users/Konstantin/Dev/pemo/android/app/src/debug/AndroidManifest.xml
	xmlns:tools
		ADDED from /Users/Konstantin/Dev/pemo/android/app/src/debug/AndroidManifest.xml:3:5-51
	android:versionCode
		INJECTED from /Users/Konstantin/Dev/pemo/android/app/src/main/AndroidManifest.xml
		ADDED from /Users/Konstantin/Dev/pemo/android/app/src/main/AndroidManifest.xml:1:1-25:12
		INJECTED from /Users/Konstantin/Dev/pemo/android/app/src/debug/AndroidManifest.xml
	xmlns:android
		ADDED from /Users/Konstantin/Dev/pemo/android/app/src/main/AndroidManifest.xml:1:11-69
uses-permission#android.permission.INTERNET
ADDED from /Users/Konstantin/Dev/pemo/android/app/src/main/AndroidManifest.xml:4:5-67
	android:name
		ADDED from /Users/Konstantin/Dev/pemo/android/app/src/main/AndroidManifest.xml:4:22-64
application
ADDED from /Users/Konstantin/Dev/pemo/android/app/src/main/AndroidManifest.xml:6:5-23:19
MERGED from /Users/Konstantin/Dev/pemo/android/app/src/main/AndroidManifest.xml:6:5-23:19
MERGED from /Users/Konstantin/Dev/pemo/android/app/src/main/AndroidManifest.xml:6:5-23:19
MERGED from [:react-native-webview] /Users/Konstantin/Dev/pemo/node_modules/react-native-webview/android/build/intermediates/library_manifest/debug/AndroidManifest.xml:11:5-21:19
MERGED from [:react-native-webview] /Users/Konstantin/Dev/pemo/node_modules/react-native-webview/android/build/intermediates/library_manifest/debug/AndroidManifest.xml:11:5-21:19
MERGED from [com.facebook.react:react-native:0.61.5] /Users/Konstantin/.gradle/caches/transforms-2/files-2.1/0f5bf9119aac26cb7f08a1356a0aa383/AndroidManifest.xml:11:5-20
MERGED from [com.facebook.react:react-native:0.61.5] /Users/Konstantin/.gradle/caches/transforms-2/files-2.1/0f5bf9119aac26cb7f08a1356a0aa383/AndroidManifest.xml:11:5-20
MERGED from [com.facebook.soloader:soloader:0.6.0] /Users/Konstantin/.gradle/caches/transforms-2/files-2.1/464abe0f5c561e034a6ceee2e0e20e93/AndroidManifest.xml:11:5-20
MERGED from [com.facebook.soloader:soloader:0.6.0] /Users/Konstantin/.gradle/caches/transforms-2/files-2.1/464abe0f5c561e034a6ceee2e0e20e93/AndroidManifest.xml:11:5-20
MERGED from [androidx.core:core:1.0.1] /Users/Konstantin/.gradle/caches/transforms-2/files-2.1/fb884cef565cc6796a05d7db93788e70/AndroidManifest.xml:22:5-89
MERGED from [androidx.core:core:1.0.1] /Users/Konstantin/.gradle/caches/transforms-2/files-2.1/fb884cef565cc6796a05d7db93788e70/AndroidManifest.xml:22:5-89
MERGED from [androidx.versionedparcelable:versionedparcelable:1.0.0] /Users/Konstantin/.gradle/caches/transforms-2/files-2.1/b603d219786f477ce908894708664035/AndroidManifest.xml:22:5-23:19
MERGED from [androidx.versionedparcelable:versionedparcelable:1.0.0] /Users/Konstantin/.gradle/caches/transforms-2/files-2.1/b603d219786f477ce908894708664035/AndroidManifest.xml:22:5-23:19
	android:appComponentFactory
		ADDED from [androidx.core:core:1.0.1] /Users/Konstantin/.gradle/caches/transforms-2/files-2.1/fb884cef565cc6796a05d7db93788e70/AndroidManifest.xml:22:18-86
	android:label
		ADDED from /Users/Konstantin/Dev/pemo/android/app/src/main/AndroidManifest.xml:8:7-39
		ADDED from /Users/Konstantin/Dev/pemo/android/app/src/main/AndroidManifest.xml:8:7-39
	tools:ignore
		ADDED from /Users/Konstantin/Dev/pemo/android/app/src/debug/AndroidManifest.xml:7:75-114
	tools:targetApi
		ADDED from /Users/Konstantin/Dev/pemo/android/app/src/debug/AndroidManifest.xml:7:54-74
	android:icon
		ADDED from /Users/Konstantin/Dev/pemo/android/app/src/main/AndroidManifest.xml:9:7-41
		ADDED from /Users/Konstantin/Dev/pemo/android/app/src/main/AndroidManifest.xml:9:7-41
	android:allowBackup
		ADDED from /Users/Konstantin/Dev/pemo/android/app/src/main/AndroidManifest.xml:10:7-34
		ADDED from /Users/Konstantin/Dev/pemo/android/app/src/main/AndroidManifest.xml:10:7-34
	android:theme
		ADDED from /Users/Konstantin/Dev/pemo/android/app/src/main/AndroidManifest.xml:11:7-38
		ADDED from /Users/Konstantin/Dev/pemo/android/app/src/main/AndroidManifest.xml:11:7-38
	android:usesCleartextTraffic
		ADDED from /Users/Konstantin/Dev/pemo/android/app/src/debug/AndroidManifest.xml:7:18-53
	android:name
		ADDED from /Users/Konstantin/Dev/pemo/android/app/src/main/AndroidManifest.xml:7:7-38
		ADDED from /Users/Konstantin/Dev/pemo/android/app/src/main/AndroidManifest.xml:7:7-38
activity#com.pemo.MainActivity
ADDED from /Users/Konstantin/Dev/pemo/android/app/src/main/AndroidManifest.xml:12:7-21:18
	android:label
		ADDED from /Users/Konstantin/Dev/pemo/android/app/src/main/AndroidManifest.xml:14:9-41
	android:windowSoftInputMode
		ADDED from /Users/Konstantin/Dev/pemo/android/app/src/main/AndroidManifest.xml:16:9-51
	android:configChanges
		ADDED from /Users/Konstantin/Dev/pemo/android/app/src/main/AndroidManifest.xml:15:9-79
	android:name
		ADDED from /Users/Konstantin/Dev/pemo/android/app/src/main/AndroidManifest.xml:13:9-37
intent-filter#action:name:android.intent.action.MAIN+category:name:android.intent.category.LAUNCHER
ADDED from /Users/Konstantin/Dev/pemo/android/app/src/main/AndroidManifest.xml:17:9-20:25
action#android.intent.action.MAIN
ADDED from /Users/Konstantin/Dev/pemo/android/app/src/main/AndroidManifest.xml:18:13-65
	android:name
		ADDED from /Users/Konstantin/Dev/pemo/android/app/src/main/AndroidManifest.xml:18:21-62
category#android.intent.category.LAUNCHER
ADDED from /Users/Konstantin/Dev/pemo/android/app/src/main/AndroidManifest.xml:19:13-73
	android:name
		ADDED from /Users/Konstantin/Dev/pemo/android/app/src/main/AndroidManifest.xml:19:23-70
activity#com.facebook.react.devsupport.DevSettingsActivity
ADDED from /Users/Konstantin/Dev/pemo/android/app/src/main/AndroidManifest.xml:22:7-84
	android:name
		ADDED from /Users/Konstantin/Dev/pemo/android/app/src/main/AndroidManifest.xml:22:17-81
uses-sdk
INJECTED from /Users/Konstantin/Dev/pemo/android/app/src/main/AndroidManifest.xml reason: use-sdk injection requested
INJECTED from /Users/Konstantin/Dev/pemo/android/app/src/main/AndroidManifest.xml
INJECTED from /Users/Konstantin/Dev/pemo/android/app/src/main/AndroidManifest.xml
MERGED from [:@react-native-community_async-storage] /Users/Konstantin/Dev/pemo/node_modules/@react-native-community/async-storage/android/build/intermediates/library_manifest/debug/AndroidManifest.xml:5:5-7:41
MERGED from [:@react-native-community_async-storage] /Users/Konstantin/Dev/pemo/node_modules/@react-native-community/async-storage/android/build/intermediates/library_manifest/debug/AndroidManifest.xml:5:5-7:41
MERGED from [:@react-native-community_masked-view] /Users/Konstantin/Dev/pemo/node_modules/@react-native-community/masked-view/android/build/intermediates/library_manifest/debug/AndroidManifest.xml:5:5-7:41
MERGED from [:@react-native-community_masked-view] /Users/Konstantin/Dev/pemo/node_modules/@react-native-community/masked-view/android/build/intermediates/library_manifest/debug/AndroidManifest.xml:5:5-7:41
MERGED from [:react-native-gesture-handler] /Users/Konstantin/Dev/pemo/node_modules/react-native-gesture-handler/android/build/intermediates/library_manifest/debug/AndroidManifest.xml:7:5-9:41
MERGED from [:react-native-gesture-handler] /Users/Konstantin/Dev/pemo/node_modules/react-native-gesture-handler/android/build/intermediates/library_manifest/debug/AndroidManifest.xml:7:5-9:41
MERGED from [:react-native-safe-area-context] /Users/Konstantin/Dev/pemo/node_modules/react-native-safe-area-context/android/build/intermediates/library_manifest/debug/AndroidManifest.xml:5:5-7:41
MERGED from [:react-native-safe-area-context] /Users/Konstantin/Dev/pemo/node_modules/react-native-safe-area-context/android/build/intermediates/library_manifest/debug/AndroidManifest.xml:5:5-7:41
MERGED from [:react-native-vector-icons] /Users/Konstantin/Dev/pemo/node_modules/react-native-vector-icons/android/build/intermediates/library_manifest/debug/AndroidManifest.xml:7:5-9:41
MERGED from [:react-native-vector-icons] /Users/Konstantin/Dev/pemo/node_modules/react-native-vector-icons/android/build/intermediates/library_manifest/debug/AndroidManifest.xml:7:5-9:41
MERGED from [:react-native-webview] /Users/Konstantin/Dev/pemo/node_modules/react-native-webview/android/build/intermediates/library_manifest/debug/AndroidManifest.xml:7:5-9:41
MERGED from [:react-native-webview] /Users/Konstantin/Dev/pemo/node_modules/react-native-webview/android/build/intermediates/library_manifest/debug/AndroidManifest.xml:7:5-9:41
MERGED from [com.facebook.react:react-native:0.61.5] /Users/Konstantin/.gradle/caches/transforms-2/files-2.1/0f5bf9119aac26cb7f08a1356a0aa383/AndroidManifest.xml:7:5-9:41
MERGED from [com.facebook.react:react-native:0.61.5] /Users/Konstantin/.gradle/caches/transforms-2/files-2.1/0f5bf9119aac26cb7f08a1356a0aa383/AndroidManifest.xml:7:5-9:41
MERGED from [org.webkit:android-jsc:r245459] /Users/Konstantin/.gradle/caches/transforms-2/files-2.1/0d0702e997172852df1ed45fb10542b3/AndroidManifest.xml:7:5-9:41
MERGED from [org.webkit:android-jsc:r245459] /Users/Konstantin/.gradle/caches/transforms-2/files-2.1/0d0702e997172852df1ed45fb10542b3/AndroidManifest.xml:7:5-9:41
MERGED from [androidx.appcompat:appcompat:1.0.2] /Users/Konstantin/.gradle/caches/transforms-2/files-2.1/7b6c35dea7248d6756250f42cc41f558/AndroidManifest.xml:20:5-44
MERGED from [androidx.appcompat:appcompat:1.0.2] /Users/Konstantin/.gradle/caches/transforms-2/files-2.1/7b6c35dea7248d6756250f42cc41f558/AndroidManifest.xml:20:5-44
MERGED from [com.facebook.fresco:fresco:2.0.0] /Users/Konstantin/.gradle/caches/transforms-2/files-2.1/e8cd691fbd00a8e3a9ce3117beb6e5cf/AndroidManifest.xml:5:5-7:41
MERGED from [com.facebook.fresco:fresco:2.0.0] /Users/Konstantin/.gradle/caches/transforms-2/files-2.1/e8cd691fbd00a8e3a9ce3117beb6e5cf/AndroidManifest.xml:5:5-7:41
MERGED from [com.facebook.fresco:imagepipeline-okhttp3:2.0.0] /Users/Konstantin/.gradle/caches/transforms-2/files-2.1/afcf36bf1b0e3f0982deeedb9df150c5/AndroidManifest.xml:5:5-7:41
MERGED from [com.facebook.fresco:imagepipeline-okhttp3:2.0.0] /Users/Konstantin/.gradle/caches/transforms-2/files-2.1/afcf36bf1b0e3f0982deeedb9df150c5/AndroidManifest.xml:5:5-7:41
MERGED from [com.facebook.fresco:drawee:2.0.0] /Users/Konstantin/.gradle/caches/transforms-2/files-2.1/0b64b9a218539492784f6a6c8eacfdcb/AndroidManifest.xml:5:5-7:41
MERGED from [com.facebook.fresco:drawee:2.0.0] /Users/Konstantin/.gradle/caches/transforms-2/files-2.1/0b64b9a218539492784f6a6c8eacfdcb/AndroidManifest.xml:5:5-7:41
MERGED from [com.facebook.fresco:nativeimagefilters:2.0.0] /Users/Konstantin/.gradle/caches/transforms-2/files-2.1/47987037aee51241a9deefd4dd60ded4/AndroidManifest.xml:5:5-7:41
MERGED from [com.facebook.fresco:nativeimagefilters:2.0.0] /Users/Konstantin/.gradle/caches/transforms-2/files-2.1/47987037aee51241a9deefd4dd60ded4/AndroidManifest.xml:5:5-7:41
MERGED from [com.facebook.fresco:imagepipeline:2.0.0] /Users/Konstantin/.gradle/caches/transforms-2/files-2.1/e00665eb7b8ed8d4b08b53d04a8add4b/AndroidManifest.xml:5:5-7:41
MERGED from [com.facebook.fresco:imagepipeline:2.0.0] /Users/Konstantin/.gradle/caches/transforms-2/files-2.1/e00665eb7b8ed8d4b08b53d04a8add4b/AndroidManifest.xml:5:5-7:41
MERGED from [com.facebook.fresco:nativeimagetranscoder:2.0.0] /Users/Konstantin/.gradle/caches/transforms-2/files-2.1/2674e2165646a676ace5014b826890f0/AndroidManifest.xml:5:5-7:41
MERGED from [com.facebook.fresco:nativeimagetranscoder:2.0.0] /Users/Konstantin/.gradle/caches/transforms-2/files-2.1/2674e2165646a676ace5014b826890f0/AndroidManifest.xml:5:5-7:41
MERGED from [com.facebook.fresco:imagepipeline-base:2.0.0] /Users/Konstantin/.gradle/caches/transforms-2/files-2.1/a843fb7efe2d20fc0425102cd2ad6f77/AndroidManifest.xml:5:5-7:41
MERGED from [com.facebook.fresco:imagepipeline-base:2.0.0] /Users/Konstantin/.gradle/caches/transforms-2/files-2.1/a843fb7efe2d20fc0425102cd2ad6f77/AndroidManifest.xml:5:5-7:41
MERGED from [com.facebook.soloader:soloader:0.6.0] /Users/Konstantin/.gradle/caches/transforms-2/files-2.1/464abe0f5c561e034a6ceee2e0e20e93/AndroidManifest.xml:7:5-9:41
MERGED from [com.facebook.soloader:soloader:0.6.0] /Users/Konstantin/.gradle/caches/transforms-2/files-2.1/464abe0f5c561e034a6ceee2e0e20e93/AndroidManifest.xml:7:5-9:41
MERGED from [androidx.fragment:fragment:1.0.0] /Users/Konstantin/.gradle/caches/transforms-2/files-2.1/48b5b4cc0675471d3e2a0b1968773187/AndroidManifest.xml:20:5-44
MERGED from [androidx.fragment:fragment:1.0.0] /Users/Konstantin/.gradle/caches/transforms-2/files-2.1/48b5b4cc0675471d3e2a0b1968773187/AndroidManifest.xml:20:5-44
MERGED from [androidx.vectordrawable:vectordrawable-animated:1.0.0] /Users/Konstantin/.gradle/caches/transforms-2/files-2.1/9afa56f59bfc51a6a5441c3cc42d05f9/AndroidManifest.xml:20:5-44
MERGED from [androidx.vectordrawable:vectordrawable-animated:1.0.0] /Users/Konstantin/.gradle/caches/transforms-2/files-2.1/9afa56f59bfc51a6a5441c3cc42d05f9/AndroidManifest.xml:20:5-44
MERGED from [androidx.legacy:legacy-support-core-ui:1.0.0] /Users/Konstantin/.gradle/caches/transforms-2/files-2.1/d1de9b9842b4429f4c19f8eed0358177/AndroidManifest.xml:20:5-44
MERGED from [androidx.legacy:legacy-support-core-ui:1.0.0] /Users/Konstantin/.gradle/caches/transforms-2/files-2.1/d1de9b9842b4429f4c19f8eed0358177/AndroidManifest.xml:20:5-44
MERGED from [androidx.legacy:legacy-support-core-utils:1.0.0] /Users/Konstantin/.gradle/caches/transforms-2/files-2.1/e7d6dae1efa6f3a300420c2c418c890c/AndroidManifest.xml:20:5-44
MERGED from [androidx.legacy:legacy-support-core-utils:1.0.0] /Users/Konstantin/.gradle/caches/transforms-2/files-2.1/e7d6dae1efa6f3a300420c2c418c890c/AndroidManifest.xml:20:5-44
MERGED from [androidx.vectordrawable:vectordrawable:1.0.1] /Users/Konstantin/.gradle/caches/transforms-2/files-2.1/26ca79b1d515208512f66b81bc299d3c/AndroidManifest.xml:20:5-44
MERGED from [androidx.vectordrawable:vectordrawable:1.0.1] /Users/Konstantin/.gradle/caches/transforms-2/files-2.1/26ca79b1d515208512f66b81bc299d3c/AndroidManifest.xml:20:5-44
MERGED from [androidx.loader:loader:1.0.0] /Users/Konstantin/.gradle/caches/transforms-2/files-2.1/7aa6b6ffc30b44fd0e7d8ba3e6016205/AndroidManifest.xml:20:5-44
MERGED from [androidx.loader:loader:1.0.0] /Users/Konstantin/.gradle/caches/transforms-2/files-2.1/7aa6b6ffc30b44fd0e7d8ba3e6016205/AndroidManifest.xml:20:5-44
MERGED from [androidx.viewpager:viewpager:1.0.0] /Users/Konstantin/.gradle/caches/transforms-2/files-2.1/197fb1647efc9eaf38a5bddcafd301f6/AndroidManifest.xml:20:5-44
MERGED from [androidx.viewpager:viewpager:1.0.0] /Users/Konstantin/.gradle/caches/transforms-2/files-2.1/197fb1647efc9eaf38a5bddcafd301f6/AndroidManifest.xml:20:5-44
MERGED from [androidx.coordinatorlayout:coordinatorlayout:1.0.0] /Users/Konstantin/.gradle/caches/transforms-2/files-2.1/23a7528478b2665bd61146263b028f5e/AndroidManifest.xml:20:5-44
MERGED from [androidx.coordinatorlayout:coordinatorlayout:1.0.0] /Users/Konstantin/.gradle/caches/transforms-2/files-2.1/23a7528478b2665bd61146263b028f5e/AndroidManifest.xml:20:5-44
MERGED from [androidx.drawerlayout:drawerlayout:1.0.0] /Users/Konstantin/.gradle/caches/transforms-2/files-2.1/ef3c986e838b3c74f712e43bb6f3c833/AndroidManifest.xml:20:5-44
MERGED from [androidx.drawerlayout:drawerlayout:1.0.0] /Users/Konstantin/.gradle/caches/transforms-2/files-2.1/ef3c986e838b3c74f712e43bb6f3c833/AndroidManifest.xml:20:5-44
MERGED from [androidx.slidingpanelayout:slidingpanelayout:1.0.0] /Users/Konstantin/.gradle/caches/transforms-2/files-2.1/4c24b1222dc70c7c4e2df61ecd317a89/AndroidManifest.xml:20:5-44
MERGED from [androidx.slidingpanelayout:slidingpanelayout:1.0.0] /Users/Konstantin/.gradle/caches/transforms-2/files-2.1/4c24b1222dc70c7c4e2df61ecd317a89/AndroidManifest.xml:20:5-44
MERGED from [androidx.customview:customview:1.0.0] /Users/Konstantin/.gradle/caches/transforms-2/files-2.1/fa443af08c8190334116e65fa49138d4/AndroidManifest.xml:20:5-44
MERGED from [androidx.customview:customview:1.0.0] /Users/Konstantin/.gradle/caches/transforms-2/files-2.1/fa443af08c8190334116e65fa49138d4/AndroidManifest.xml:20:5-44
MERGED from [androidx.swiperefreshlayout:swiperefreshlayout:1.0.0] /Users/Konstantin/.gradle/caches/transforms-2/files-2.1/ade4a3435e7f15e8bca422b958bdb554/AndroidManifest.xml:20:5-44
MERGED from [androidx.swiperefreshlayout:swiperefreshlayout:1.0.0] /Users/Konstantin/.gradle/caches/transforms-2/files-2.1/ade4a3435e7f15e8bca422b958bdb554/AndroidManifest.xml:20:5-44
MERGED from [androidx.asynclayoutinflater:asynclayoutinflater:1.0.0] /Users/Konstantin/.gradle/caches/transforms-2/files-2.1/d8ad908d508b0ef95c8babbe811e7299/AndroidManifest.xml:20:5-44
MERGED from [androidx.asynclayoutinflater:asynclayoutinflater:1.0.0] /Users/Konstantin/.gradle/caches/transforms-2/files-2.1/d8ad908d508b0ef95c8babbe811e7299/AndroidManifest.xml:20:5-44
MERGED from [androidx.core:core:1.0.1] /Users/Konstantin/.gradle/caches/transforms-2/files-2.1/fb884cef565cc6796a05d7db93788e70/AndroidManifest.xml:20:5-44
MERGED from [androidx.core:core:1.0.1] /Users/Konstantin/.gradle/caches/transforms-2/files-2.1/fb884cef565cc6796a05d7db93788e70/AndroidManifest.xml:20:5-44
MERGED from [androidx.versionedparcelable:versionedparcelable:1.0.0] /Users/Konstantin/.gradle/caches/transforms-2/files-2.1/b603d219786f477ce908894708664035/AndroidManifest.xml:20:5-44
MERGED from [androidx.versionedparcelable:versionedparcelable:1.0.0] /Users/Konstantin/.gradle/caches/transforms-2/files-2.1/b603d219786f477ce908894708664035/AndroidManifest.xml:20:5-44
MERGED from [androidx.cursoradapter:cursoradapter:1.0.0] /Users/Konstantin/.gradle/caches/transforms-2/files-2.1/1918d0d14692112c4a4f1f1064ccfdca/AndroidManifest.xml:20:5-44
MERGED from [androidx.cursoradapter:cursoradapter:1.0.0] /Users/Konstantin/.gradle/caches/transforms-2/files-2.1/1918d0d14692112c4a4f1f1064ccfdca/AndroidManifest.xml:20:5-44
MERGED from [androidx.lifecycle:lifecycle-runtime:2.0.0] /Users/Konstantin/.gradle/caches/transforms-2/files-2.1/9c3e8bcd72ca44f2307dd217d6158ce7/AndroidManifest.xml:20:5-44
MERGED from [androidx.lifecycle:lifecycle-runtime:2.0.0] /Users/Konstantin/.gradle/caches/transforms-2/files-2.1/9c3e8bcd72ca44f2307dd217d6158ce7/AndroidManifest.xml:20:5-44
MERGED from [androidx.documentfile:documentfile:1.0.0] /Users/Konstantin/.gradle/caches/transforms-2/files-2.1/1cbb145669d63f12ce06ecb675a68cca/AndroidManifest.xml:20:5-44
MERGED from [androidx.documentfile:documentfile:1.0.0] /Users/Konstantin/.gradle/caches/transforms-2/files-2.1/1cbb145669d63f12ce06ecb675a68cca/AndroidManifest.xml:20:5-44
MERGED from [androidx.localbroadcastmanager:localbroadcastmanager:1.0.0] /Users/Konstantin/.gradle/caches/transforms-2/files-2.1/c058c4cc01fe9b1698af32383f35b7cd/AndroidManifest.xml:20:5-44
MERGED from [androidx.localbroadcastmanager:localbroadcastmanager:1.0.0] /Users/Konstantin/.gradle/caches/transforms-2/files-2.1/c058c4cc01fe9b1698af32383f35b7cd/AndroidManifest.xml:20:5-44
MERGED from [androidx.print:print:1.0.0] /Users/Konstantin/.gradle/caches/transforms-2/files-2.1/1b5c13f6b23ebf240d4fbf4d0aecbbb9/AndroidManifest.xml:20:5-44
MERGED from [androidx.print:print:1.0.0] /Users/Konstantin/.gradle/caches/transforms-2/files-2.1/1b5c13f6b23ebf240d4fbf4d0aecbbb9/AndroidManifest.xml:20:5-44
MERGED from [androidx.lifecycle:lifecycle-viewmodel:2.0.0] /Users/Konstantin/.gradle/caches/transforms-2/files-2.1/d133eb28dc2e098dbea9f597a8aab51a/AndroidManifest.xml:20:5-44
MERGED from [androidx.lifecycle:lifecycle-viewmodel:2.0.0] /Users/Konstantin/.gradle/caches/transforms-2/files-2.1/d133eb28dc2e098dbea9f597a8aab51a/AndroidManifest.xml:20:5-44
MERGED from [androidx.lifecycle:lifecycle-livedata:2.0.0] /Users/Konstantin/.gradle/caches/transforms-2/files-2.1/da5d49d2c9825f82dfaee107a660c53d/AndroidManifest.xml:20:5-44
MERGED from [androidx.lifecycle:lifecycle-livedata:2.0.0] /Users/Konstantin/.gradle/caches/transforms-2/files-2.1/da5d49d2c9825f82dfaee107a660c53d/AndroidManifest.xml:20:5-44
MERGED from [androidx.lifecycle:lifecycle-livedata-core:2.0.0] /Users/Konstantin/.gradle/caches/transforms-2/files-2.1/a862cddd5ebb254a5f87977c6d9d3b51/AndroidManifest.xml:20:5-44
MERGED from [androidx.lifecycle:lifecycle-livedata-core:2.0.0] /Users/Konstantin/.gradle/caches/transforms-2/files-2.1/a862cddd5ebb254a5f87977c6d9d3b51/AndroidManifest.xml:20:5-44
MERGED from [androidx.arch.core:core-runtime:2.0.0] /Users/Konstantin/.gradle/caches/transforms-2/files-2.1/45eedfab2b2eda42599fd519558a0019/AndroidManifest.xml:20:5-44
MERGED from [androidx.arch.core:core-runtime:2.0.0] /Users/Konstantin/.gradle/caches/transforms-2/files-2.1/45eedfab2b2eda42599fd519558a0019/AndroidManifest.xml:20:5-44
MERGED from [androidx.interpolator:interpolator:1.0.0] /Users/Konstantin/.gradle/caches/transforms-2/files-2.1/fae3780e20880ba06d96229626fdae47/AndroidManifest.xml:20:5-44
MERGED from [androidx.interpolator:interpolator:1.0.0] /Users/Konstantin/.gradle/caches/transforms-2/files-2.1/fae3780e20880ba06d96229626fdae47/AndroidManifest.xml:20:5-44
MERGED from [com.facebook.fresco:fbcore:2.0.0] /Users/Konstantin/.gradle/caches/transforms-2/files-2.1/0063fae6ed1d4e79ee97b26ce63932d1/AndroidManifest.xml:5:5-7:41
MERGED from [com.facebook.fresco:fbcore:2.0.0] /Users/Konstantin/.gradle/caches/transforms-2/files-2.1/0063fae6ed1d4e79ee97b26ce63932d1/AndroidManifest.xml:5:5-7:41
INJECTED from /Users/Konstantin/Dev/pemo/android/app/src/debug/AndroidManifest.xml
INJECTED from /Users/Konstantin/Dev/pemo/android/app/src/debug/AndroidManifest.xml
	android:targetSdkVersion
		INJECTED from /Users/Konstantin/Dev/pemo/android/app/src/main/AndroidManifest.xml
		INJECTED from /Users/Konstantin/Dev/pemo/android/app/src/debug/AndroidManifest.xml
	android:minSdkVersion
		INJECTED from /Users/Konstantin/Dev/pemo/android/app/src/main/AndroidManifest.xml
		INJECTED from /Users/Konstantin/Dev/pemo/android/app/src/debug/AndroidManifest.xml
uses-permission#android.permission.SYSTEM_ALERT_WINDOW
ADDED from /Users/Konstantin/Dev/pemo/android/app/src/debug/AndroidManifest.xml:5:5-77
	android:name
		ADDED from /Users/Konstantin/Dev/pemo/android/app/src/debug/AndroidManifest.xml:5:22-75
provider#com.reactnativecommunity.webview.RNCWebViewFileProvider
ADDED from [:react-native-webview] /Users/Konstantin/Dev/pemo/node_modules/react-native-webview/android/build/intermediates/library_manifest/debug/AndroidManifest.xml:12:9-20:20
	android:grantUriPermissions
		ADDED from [:react-native-webview] /Users/Konstantin/Dev/pemo/node_modules/react-native-webview/android/build/intermediates/library_manifest/debug/AndroidManifest.xml:16:13-47
	android:authorities
		ADDED from [:react-native-webview] /Users/Konstantin/Dev/pemo/node_modules/react-native-webview/android/build/intermediates/library_manifest/debug/AndroidManifest.xml:14:13-64
	android:exported
		ADDED from [:react-native-webview] /Users/Konstantin/Dev/pemo/node_modules/react-native-webview/android/build/intermediates/library_manifest/debug/AndroidManifest.xml:15:13-37
	android:name
		ADDED from [:react-native-webview] /Users/Konstantin/Dev/pemo/node_modules/react-native-webview/android/build/intermediates/library_manifest/debug/AndroidManifest.xml:13:13-83
meta-data#android.support.FILE_PROVIDER_PATHS
ADDED from [:react-native-webview] /Users/Konstantin/Dev/pemo/node_modules/react-native-webview/android/build/intermediates/library_manifest/debug/AndroidManifest.xml:17:13-19:63
	android:resource
		ADDED from [:react-native-webview] /Users/Konstantin/Dev/pemo/node_modules/react-native-webview/android/build/intermediates/library_manifest/debug/AndroidManifest.xml:19:17-60
	android:name
		ADDED from [:react-native-webview] /Users/Konstantin/Dev/pemo/node_modules/react-native-webview/android/build/intermediates/library_manifest/debug/AndroidManifest.xml:18:17-67
